Title,Author,Year,Sizes noted in paper,Nodes avg,Edges avg,Density avg,Directed/Undirected,GRAPH FACTORS,Type,Static/Dynamic,Attributes,Structure,Layout,Real/Generated,STUDY DESIGN,Number participants,Nature participants,Within/between,HCI FACTORS,Type of task,Type of interaction,,General category,Application Area,Improvement relates to ,
GraphDescriptor: Augmenting Node-Link Diagrams With Textual Descriptions,"Pan, Jiacheng; Yan, Zihan; Zhou, Zihan; Zhao, Xiaodong; Cheng, Shenghui; Han, Dongming; Chen, Jian; Xu, Mingliang; Chen, Wei",2023,Yes,14,32,0.3516483516,Undirected,,Node-link,Static,all reported in page 183,,,Real,,12,University,Within,,Attribute/Topology,Select/Abstract-Elaborate,,Node-link,,Textual description of graph,
The Role of Working Memory Capacity in Graph Reading Performance,"Fletcher, Ciara; Huang, Weidong; Arness, David; Nguyen, Quang Vinh",2019,Partial,39,,49,Undirected,,Node-link,Static,,,,Generated,,46,University,Within,,Topology,No interaction,,None,,None,
User Evaluation of Group-in-a-Box Variants,"Aoyama, Nozomi; Onoue, Yosuke; Ueno, Yuki; Natsukawa, Hiroaki; Koyamada, Koji",2019,No,,,,Undirected,,Node-link,Static,,,,Generated,,19,University,Within,,Overview/Attribute,No interaction,,Group-in-a-box paradigm,,Group-in-a-box,
Edit-History Vis: An Interactive Visual Exploration and Analysis on Wikipedia Edit History,"Guo, Yuhan; Han, Qin; Lou, Yuke; Wang, Yiming; Liu, Can; Yuan, Xiaoru",2023,No,,,,Undirected,,Node-link,Static,,,,Real,,9,University,Within,,Overview,Select/Explore/Filter/Create,,New visualization,Wikipedia,Edit history (on wiki) / New visualization topic,
KernelGraph: Understanding the kernel in a graph,"Shi, Jianjun; Ji, Weixing; Zhang, Jingjing; Gao, Zhiwei; Wang, Yizhuo; Shi, Feng",2019,No,,,,Undirected,,Node-link,Static,functions,circular,,Generated,,30,Working professionals,Within,,Overview/Attribute,Explore/Abstract-Elaborate,,New visualization,Kernel,New visualization topic,
Riverside: A design study on visualization for situation awareness in cybersecurity,"DeValk, Kaitlyn; Elmqvist, Niklas",2024,No,,,,Directed,,Node-link,Dynamic,,,,Generated,,10,Working professionals,Within,,Overview/Attribute,Explore/Abstract-Elaborate/Select,,New visualization,Cybersec,New visualization topic,
Calliope-Net: Automatic Generation of Graph Data Facts via Annotated Node-Link Diagrams,"Chen, Qing; Chen, Nan; Shuai, Wei; Wu, Guande; Xu, Zhe; Tong, Hanghang; Cao, Nan",2024,Yes,96,249.5,0.05471491228,Undirected,,Node-link,Static,important data facts,,annotation-aware,Real,,36,Internet,Within,,Overview/Attribute,No interaction,,Node,,Information on edge,
Color-Encoded Links Improve Homophily Perception in Node-Link Diagrams,"Reimann, Daniel; Schulz, André; Ram, Nilam; Gaschler, Robert",2023,Yes,27,55,0.1566951567,Undirected,,Node-link,Static,homophily,evenly split over 2 clusters,,Generated,,53,University,Within,,Topology/Overview,No interaction,,Edge,,Homophily ,
Exemplar-based Layout Fine-tuning for Node-link Diagrams,"Pan, Jiacheng; Chen, Wei; Zhao, Xiaodong; Zhou, Shuyue; Zeng, Wei; Zhu, Minfeng; Chen, Jian; Fu, Siwei; Wu, Yingcai",2021,No,14,15.4,0.1692307692,Undirected,,Node-link,Static,varied,,fine tuned,Real,,12,University,Within,,Overview,Reconfigure,,Layout,,,
Graph Exploration with Embedding-Guided Layouts,"Shen, Leixian; Tai, Zhiwei; Shen, Enya; Wang, Jianmin",2023,Yes,1190.833,2524.833,0.003563902239,Undirected,,Node-link,Static,varied,,,Real,,12,Varied,Within,,Overview,Select/Explore/Abstract-Elaborate,,Layout,,,
Evaluating Animation Parameters for Morphing Edge Drawings,"Binucci, Carla; Förster, Henry; Katheder, Julia; Tappini, Alessandra",2023,Yes,50,163,0.1330612245,Undirected,,Node-link,Static,pg 253,,,Real,,84,University and Conference mailing lists,Between,,Overview,No interaction,,Edge,,,
On the Perception of Small Sub-graphs,"Miller, Jacob; Ghoniem, Mohammad; Wu, Hsiang-Yun; Purchase, Helen C.",2023,No,,,,Undirected,,Node-link,Static,"",Motif,MDS,Generated,,150,Internet,Within,,Overview,No interaction,Are they similar,Layout,,,
Visual Similarity Perception of Directed Acyclic Graphs: A Study on Influencing Factors,"Ballweg, K.; Pohl, M.; Wallner, G.; von Landesberger, T.",2018,Partial,8,n/a,n/a,Directed,,Node-link,Static,"",,,Generated,,20,N/A,Within,,Overview,No interaction,Grouping DAGs,Investigation paper,,DAG perception,
Augmenting Node-Link Diagrams with Topographic Attribute Maps,"Preiner, R.; Schmidt, J.; Krösl, K.; Schreck, T.; Mistelbauer, G.",2020,Partial,5144,n/a,n/a,Directed,,Node-link,Static,Static,movies,,Real,,44,University,Within,,Attribute,Select,,Scalar data embedding,,Scalar data embedding,
Egocentric Network Exploration for Immersive Analytics,"Sorger, J.; Arleo, A.; Kán, P.; Knecht, W.; Waldner, M.",2021,Yes,290,576,0.01374537645,Undirected,,Node-link,Static,??,,,Generated,,25,University,Within,,Topology/Attribute,Select/Explore,,Exploration Strategy,,VR,
MotionGlyphs: Visual Abstraction of Spatio-Temporal Networks in Collective Animal Behavior,"Cakmak, E.; Schäfer, H.; Buchmüller, J.; Fuchs, J.; Schreck, T.; Jordan, A.; Keim, D.",2020,No,,,,Directed,,Node-link,Static,Dynamic,animal behaviour,,Real,,5 experts,University,Within,,Topology/Attribute/Browsing/Overview,Select/Abstract-Elaborate/Explore,,Node,Animal Behaviour,Glyphs as nodes,
NEVA: Visual Analytics to Identify Fraudulent Networks,"Leite, Roger A.; Gschwandtner, Theresia; Miksch, Silvia; Gstrein, Erich; Kuntner, Johannes",2020,No,,,,Undirected,,Node-link,Static,Dynamic,,,Real,,6 experts,N/A,Within,,Attribute,Select/Filter/Explore/Abstract-Elaborate, elementary and synoptic tasks. page 354,New visualization,Bank transactions,New visualization topic,analytical task taxonomy by Andrienko and Andrienko
Optimizing Stepwise Animation in Dynamic Set Diagrams,"Mizuno, Kazuyo; Wu, Hsiang-Yun; Takahashi, Shigeo; Igarashi, Takeo",2019,No,,,,Undirected,,Node-link,Dynamic,,,,Real,,38,University,Within,,Overview/Attribute,No interaction,,Attribute,Set diagram into static action sets,Information on node,
Placing Arrows in Directed Graph Layouts: Algorithms and Experiments,"Binucci, Carla; Didimo, Walter; Kaufmann, Michael; Liotta, Giuseppe; Montecchiani, Fabrizio",2022,Yes,100,149.416,0.004509435419,Directed,,Node-link,Static,Static,,,Both,,48,University,Within,,Topology/Overview,No interaction,,Edge,,Labels,
RfX: A Design Study for the Interactive Exploration of a Random Forest to Enhance Testing Procedures for Electrical Engines,"Eirich, J.; Münch, M.; Jäckle, D.; Sedlmair, M.; Bonart, J.; Schreck, T.",2022,No,,,,Undirected,,Node-link,Static,Static,RF,,Real,,5 experts,Experts,Within,,"",Select/Abstract-Elaborate,,Node,,Information,
Unfolding Edges: Adding Context to Edges in Multivariate Graph Visualization,"Bludau, M.-J.; Dörk, M.; Tominski, C.",2023,Yes,192,325,0.01772469459,Undirected,,Node-link,Dynamic,Dynamic,,,Real,,4 experts,Experts,Within,,"",Abstract-Elaborate/Select/Explore/Filter,,Edge,,Information on edge,
Visual Analytics of Contact Tracing Policy Simulations During an Emergency Response,"Sondag, M.; Turkay, C.; Xu, K.; Matthews, L.; Mohr, S.; Archambault, D.",2022,No,,,,Undirected,,Node-link,Dynamic,Static,,,Generated,,4 experts,Experts,Within,,"",Abstract-Elaborate,,Node,,Information on node,
Edge Label Placement in Layered Graph Drawing,"Schulze, Christoph Daniel; Wechselberg, Nis; von Hanxleden, Reinhard",2018,No,,,,Directed,,Node-link,Static,n/a,n/a,n/a,Generated,,48,N/A,Within,,Topology,No interaction,,Edge,,Positioning,
"Influence of Shape, Density, and Edge Crossings on the Perception of Graph Differences","Wallner, Günter; Pohl, Margit; Graniczkowska, Cynthia; Ballweg, Kathrin; von Landesberger, Tatiana",2020,Yes,71.5,79.5,0.0114569563,Directed,,Node-link,Static,n/a,,n/a,Real,,40,University,Within,,Overview,No interaction,,Investigation paper,,"Investigation paper (shape, density, edge)",
Perception of Node-Link Diagrams: The Effect of Layout on the Perception of Graph Properties,"Kypridemou, Elektra; Zito, Michele; Bertamini, Marco",2022,Partial,16,,"",Undirected,,Node-link,Static,n/a,,grid,Generated,,16,N/A,Within,,Topology/Overview,No interaction,,Investigation paper,,Investigation paper (layout),
Visual Causality: Investigating Graph Layouts for Understanding Causal Processes,"Vo, Dong-Bach; Lazarova, Kristina; Purchase, Helen C.; McCann, Mark",2020,Partial,30,,"",Directed,,Node-link,Static,Causal attributes,,Parallel-series,Generated,,30,University,Within,,Attribute,No interaction,,Investigation paper,Statistical models,Investigation paper (layout),
Animated Edge Textures in Node-Link Diagrams: a Design Space and Initial Evaluation,"Romat, Hugo; Appert, Caroline; Bach, Benjamin; Henry-Riche, Nathalie; Pietriga, Emmanuel",2018,Yes,15.33,14,0.1274587591,Undirected,,Node-link,Static,links: frequency/speed but not the point,,D3 force-layout,Real,,36,N/A,Within,,Overview/Browsing,Encode,,Edge,Airport routes,Information on Edge,
DoughNets: Visualising Networks Using Torus Wrapping,"Chen, Kun-Ting; Dwyer, Tim; Marriott, Kim; Bach, Benjamin",2020,Yes,11.33,23,0.3930317185,Undirected,,Node-link,Static,friends w/ numbers,4 techniques x 3 difficulty levels x 4 tasks,"k3,3",Unclear,,24,University,Between/Within,,Topology/Browsing,Explore,,Toroidal wrapping,,Toroidal manipulation,
It’s a Wrap: Toroidal Wrapping of Network Visualisations Supports Cluster Understanding Tasks,"Chen, Kun-Ting; Dwyer, Tim; Bach, Benjamin; Marriott, Kim",2021,Yes,186.5,879.5,0.05084439563,Undirected,,Node-link,Static,Unclear,"Easy/hard with modularity 0.4,0.3 and Small/Large size",Pairwise 20 times then selected randomly,Real,,32,University,Within,,Overview,Explore,,Toroidal wrapping,,Toroidal manipulation,
Dynamic Network Plaid: A Tool for the Analysis of Dynamic Networks,"Lee, Alexandra; Archambault, Daniel; Nacenta, Miguel",2019,Partial,,41073,,Directed,,Node-link,Dynamic,,force-directed,,,,3,Experts,Between,,"",Select/Explore/Filter/Abstract-Elaborate,,,,Facilitate the visualization and exploration of large continuous dynamic network data,
"Tactile Presentation of Network Data: Text, Matrix or Diagram?","Yang, Yalong; Marriott, Kim; Butler, Matthew; Goncu, Cagatay; Holloway, Leona",2020,Partial,15,,,Undirected,,Node-link,Static,,,,Generated,,8,Blind or low-vision familiar with tactile diagrams,,,Topology/Overview,No interaction,,"They blind, idk about interaction",Tactile Representation,Node-link is prefered than adjacency matrices and braille list for path following and cluster identification,
Resolving Conflicting Insights in Asynchronous Collaborative Visual Analysis,,2020,No,,,,Directed,,Node-link,Dynamic,,,,Real,,16,University,Within,,Overview,Create/Explore/Select/Encode,,,,,
VisCoMET: Visually Analyzing Team Collaboration in Medical Emergency Trainings,,,No,,,,Undirected,,Node-link,Dynamic,,,,Real,,5,Experts,Within,,Overview,Explore,,,,visual analytics approach for analyzing team collaboration in medical emergency trainings,
A User Study on Hybrid Graph Visualizations,,2021,Yes,116.333,237,0.035328226,Undirected,,Chord node-link,,,,,,,89,Internet,Between,,Topology/Attribute/Overview,No interaction,,,,,"Differnet visulization models, combine nodelink and matric-based representations (globally sparse, locally dense"
Touch? Speech? or Touch and Speech? Investigating Multimodal Interaction for Visual Network Exploration and Analysis,"Saktheeswaran, Ayshwarya; Srinivasan, Arjun; Stasko, John",2020,Yes,553.5,2241,0.014656219,Undirected,,Node-link,Dynamic,airports,geographic,,Real,,18,University,Within,,Topology/Attribute/Browsing,Filter/Explore/Select,,,,Multimodal interaction,
Linking unstructured evidence to structured observations,,2021,No,"",16,"",Undirected,,Node-link,Dynamic,,,,,,20,Workers from academic env,Between,,Overview,Filter/Explore/Select/Encode/Create,,,,Turn unstructured into structured,
Interactive temporal display through collaboration networks visualization,"Jing, Ming; Li Xueqing; Zhang, Li",2019,No,,,,Directed,,Node-link,Dynamic,,force-directed,,Real,,14,University students,Between,,Overview/Attribute,Reconfigure,,,,,